Name key code for image counts microelectrode array 030517,
,
Gold_Array_P7_006_cropped.jpg,1
Gold_Array_P7_005_cropped.jpg,2
Gold_Array_P7_004_cropped.jpg,3
Gold_Array_P7_003_cropped.jpg,4
Gold_Array_P7_002_cropped.jpg,5
Gold_Array_P7_001_cropped.jpg,6
Gold_Array_P6_006_cropped.jpg,7
Gold_Array_P6_005_cropped.jpg,8
Gold_Array_P6_004_cropped.jpg,9
Gold_Array_P6_003_cropped.jpg,10
Gold_Array_P6_002_cropped.jpg,11
Gold_Array_P6_001_cropped.jpg,12
Gold_Array_P5_006_cropped.jpg,13
Gold_Array_P5_005_cropped.jpg,14
Gold_Array_P5_004_cropped.jpg,15
Gold_Array_P5_003_cropped.jpg,16
Gold_Array_P5_002_cropped.jpg,17
Gold_Array_P5_001_cropped.jpg,18
Gold_Array_P4_006_cropped.jpg,19
Gold_Array_P4_005_cropped.jpg,20
Gold_Array_P4_004_cropped.jpg,21
Gold_Array_P4_003_cropped.jpg,22
Gold_Array_P4_002_cropped.jpg,23
Gold_Array_P4_001_cropped.jpg,24
Gold_Array_P3_006_cropped.jpg,25
Gold_Array_P3_004_cropped.jpg,26
Gold_Array_P3_003_cropped.jpg,27
Gold_Array_P3_002_cropped.jpg,28
Gold_Array_P3_001_cropped.jpg,29
Gold_Array_P2_006_cropped.jpg,30
Gold_Array_P2_005_cropped.jpg,31
Gold_Array_P2_004_cropped.jpg,32
Gold_Array_P2_003_cropped.jpg,33
Gold_Array_P2_002_cropped.jpg,34
Gold_Array_P2_001_cropped.jpg,35
Gold_Array_P1_006_cropped.jpg,36
Gold_Array_P1_005_cropped.jpg,37
Gold_Array_P1_004_cropped.jpg,38
Gold_Array_P1_003_cropped.jpg,39
Gold_Array_P1_002_cropped.jpg,40
Gold_Array_P1_001_cropped.jpg,41
Gold_Array_E8_006_cropped.jpg,42
Gold_Array_E8_005_cropped.jpg,43
Gold_Array_E8_004_cropped.jpg,44
Gold_Array_E8_003_cropped.jpg,45
Gold_Array_E8_002_cropped.jpg,46
Gold_Array_E8_001_cropped.jpg,47
Gold_Array_E7_006_cropped.jpg,48
Gold_Array_E7_005_cropped.jpg,49
Gold_Array_E7_004_cropped.jpg,50
Gold_Array_E7_003_cropped.jpg,51
Gold_Array_E7_002_cropped.jpg,52
Gold_Array_E7_001_cropped.jpg,53
Gold_Array_E6_006_cropped.jpg,54
Gold_Array_E6_005_cropped.jpg,55
Gold_Array_E6_004_cropped.jpg,56
Gold_Array_E6_003_cropped.jpg,57
Gold_Array_E6_002_cropped.jpg,58
Gold_Array_E6_001_cropped.jpg,59
Gold_Array_E5_006_cropped.jpg,60
Gold_Array_E5_005_cropped.jpg,61
Gold_Array_E5_004_cropped.jpg,62
Gold_Array_E5_003_cropped.jpg,63
Gold_Array_E5_002_cropped.jpg,64
Gold_Array_E5_001_cropped.jpg,65
Gold_Array_E4_006_cropped.jpg,66
Gold_Array_E4_005_cropped.jpg,67
Gold_Array_E4_004_cropped.jpg,68
Gold_Array_E4_003_cropped.jpg,69
Gold_Array_E4_002_cropped.jpg,70
Gold_Array_E4_001_cropped.jpg,71
Gold_Array_E3_006_cropped.jpg,72
Gold_Array_E3_005_cropped.jpg,73
Gold_Array_E3_004_cropped.jpg,74
Gold_Array_E3_003_cropped.jpg,75
Gold_Array_E3_002_cropped.jpg,76
Gold_Array_E3_001_cropped.jpg,77
Gold_Array_E2_006_cropped.jpg,78
Gold_Array_E2_005_cropped.jpg,79
Gold_Array_E2_004_cropped.jpg,80
Gold_Array_E2_003_cropped.jpg,81
Gold_Array_E2_002_cropped.jpg,82
Gold_Array_E2_001_cropped.jpg,83
Gold_Array_E1_006_cropped.jpg,84
Gold_Array_E1_005_cropped.jpg,85
Gold_Array_E1_004_cropped.jpg,86
Gold_Array_E1_003_cropped.jpg,87
Gold_Array_E1_002_cropped.jpg,88
Gold_Array_E1_001_cropped.jpg,89